<svg width="40" height="38" viewBox="0 0 40 38" xmlns="http://www.w3.org/2000/svg">
<path fill-rule="evenodd" clip-rule="evenodd" d="M5.93703 23.1991H11.4341C16.0211 23.1991 19.7527 19.364 19.7527 14.6502C19.7527 9.93637 16.0211 6.1012 11.4341 6.1012H5.93703V23.1991ZM40 38H16.4402L33.2796 20.695C34.3222 19.6232 34.3222 17.8792 33.2796 16.8071C32.7742 16.288 32.1022 16.002 31.3875 16.002C30.673 16.002 30.0013 16.288 29.496 16.8071L21.5146 25.0094C18.8221 27.7764 15.242 29.3003 11.4341 29.3003H0V0H11.4341C18.3956 0 24.3934 5.26266 25.5026 12.2892C28.8756 9.04359 34.1873 9.11231 37.4773 12.493C40.835 15.9438 40.835 21.5585 37.4773 25.0094L30.7736 31.8988H40V38Z" />
</svg>
